
<svg width="45px" height="31px" viewBox="0 0 45 31" version="1.1" xmlns="http://www.w3.org/2000/svg" xmlns:xlink="http://www.w3.org/1999/xlink">
    <!-- Generator: Sketch 47.1 (45422) - http://www.bohemiancoding.com/sketch -->
    <desc>Created with Sketch.</desc>
    <defs></defs>
    <g id="Mobile" stroke="none" stroke-width="1" fill="none" fill-rule="evenodd">
        <g transform="translate(-300.000000, -66.000000)" id="Nav" fill="#12285F">
            <g transform="translate(-5.000000, 44.000000)">
                <g id="Group" transform="translate(305.000000, 22.000000)">
                    <rect id="Rectangle" x="0" y="0" width="45" height="5" rx="2.5"></rect>
                    <rect id="Rectangle-Copy" x="0" y="13" width="45" height="5" rx="2.5"></rect>
                    <rect id="Rectangle-Copy-2" x="0" y="26" width="45" height="5" rx="2.5"></rect>
                </g>
            </g>
        </g>
    </g>
</svg>
